{
    "conditions": {
        "A": 0, 
        "B": 1000,
        "C": 500,
        "D": 100,
        "E": 50,
        "F": 10,
        "G": 1,
        "H": 1e-1,
        "I": 1e-2
    },
    "tasks": [
        {
            "colnum": 1,
            "input": "data/19.10.18 SNM1A Fluorescence Assay w Inhibitors/Inhibitor 1 I.txt"
        }, 
        {
            "colnum": 2,
            "input": "data/19.10.18 SNM1A Fluorescence Assay w Inhibitors/Inhibitor 1 II.txt"
        }, 
        {
            "colnum": 3,
            "input": "data/19.10.18 SNM1A Fluorescence Assay w Inhibitors/Inhibitor 1 III.txt"
        }, 
        {
            "colnum": 4,
            "input": "data/19.10.18 SNM1A Fluorescence Assay w Inhibitors/Inhibitor 1 IV.txt"
        }
    ]
}